ST558_HW3_Importing_Data
…
Rows: 214 Columns: 11
── Column specification ────────────────────────────────────────────────────────
Delimiter: ","
dbl (11): ID, RI, Na, Mg, Al, Si, K, Ca, Ba, Fe, Type_of_glass

ℹ Use `spec()` to retrieve the full column specification for this data.
ℹ Specify the column types or set `show_col_types = FALSE` to quiet this message.

glass_data

# A tibble: 214 × 11
      ID    RI    Na    Mg    Al    Si     K    Ca    Ba    Fe Type_of_glass
   <dbl> <dbl> <dbl> <dbl> <dbl> <dbl> <dbl> <dbl> <dbl> <dbl>         <dbl>
 1     1  1.52  13.6  4.49  1.1   71.8  0.06  8.75     0  0                1
 2     2  1.52  13.9  3.6   1.36  72.7  0.48  7.83     0  0                1
 3     3  1.52  13.5  3.55  1.54  73.0  0.39  7.78     0  0                1
 4     4  1.52  13.2  3.69  1.29  72.6  0.57  8.22     0  0                1
 5     5  1.52  13.3  3.62  1.24  73.1  0.55  8.07     0  0                1
 6     6  1.52  12.8  3.61  1.62  73.0  0.64  8.07     0  0.26             1
 7     7  1.52  13.3  3.6   1.14  73.1  0.58  8.17     0  0                1
 8     8  1.52  13.2  3.61  1.05  73.2  0.57  8.24     0  0                1
 9     9  1.52  14.0  3.58  1.37  72.1  0.56  8.3      0  0                1
10    10  1.52  13    3.6   1.36  73.0  0.57  8.4      0  0.11             1
# ℹ 204 more rows
…
                    ifelse(
                      Type_of_glass == 5, "containers",
                        ifelse(
                          Type_of_glass == 6, "tableware",
                            ifelse(
                              Type_of_glass == 7, "headlamps", "ERROR")
                            )
                        )
                    )
                )
            )
          )
      )

# A tibble: 214 × 11
      ID    RI    Na    Mg    Al    Si     K    Ca    Ba    Fe Type_of_glass    
   <dbl> <dbl> <dbl> <dbl> <dbl> <dbl> <dbl> <dbl> <dbl> <dbl> <chr>            
 1     1  1.52  13.6  4.49  1.1   71.8  0.06  8.75     0  0    building_windows…
 2     2  1.52  13.9  3.6   1.36  72.7  0.48  7.83     0  0    building_windows…
 3     3  1.52  13.5  3.55  1.54  73.0  0.39  7.78     0  0    building_windows…
 4     4  1.52  13.2  3.69  1.29  72.6  0.57  8.22     0  0    building_windows…
 5     5  1.52  13.3  3.62  1.24  73.1  0.55  8.07     0  0    building_windows…
 6     6  1.52  12.8  3.61  1.62  73.0  0.64  8.07     0  0.26 building_windows…
 7     7  1.52  13.3  3.6   1.14  73.1  0.58  8.17     0  0    building_windows…
 8     8  1.52  13.2  3.61  1.05  73.2  0.57  8.24     0  0    building_windows…
 9     9  1.52  14.0  3.58  1.37  72.1  0.56  8.3      0  0    building_windows…
10    10  1.52  13    3.6   1.36  73.0  0.57  8.4      0  0.11 building_windows…
# ℹ 204 more rows
…
                          Type_of_glass == 6, "tableware",
                            ifelse(
                              Type_of_glass == 7, "headlamps", "ERROR")
                            )
                        )
                    )
                )
            )
          )
      ) |>
  filter(
    Fe < 0.2,
    Type_of_glass == "tableware" | Type_of_glass == "headlamps")

# A tibble: 38 × 11
      ID    RI    Na    Mg    Al    Si     K    Ca    Ba    Fe Type_of_glass
   <dbl> <dbl> <dbl> <dbl> <dbl> <dbl> <dbl> <dbl> <dbl> <dbl> <chr>        
 1   177  1.52  14    2.39  1.56  72.4  0     9.57  0        0 tableware    
 2   178  1.52  13.8  2.41  1.19  72.8  0     9.77  0        0 tableware    
 3   179  1.52  14.5  2.24  1.62  72.4  0     9.26  0        0 tableware    
 4   180  1.52  14.1  2.19  1.66  72.7  0     9.32  0        0 tableware    
 5   181  1.51  14.4  1.74  1.54  74.6  0     7.59  0        0 tableware    
 6   182  1.52  15.0  0.78  1.74  72.5  0     9.95  0        0 tableware    
 7   183  1.52  14.2  0     2.09  72.7  0    10.9   0        0 tableware    
 8   184  1.52  14.6  0     0.56  73.5  0    11.2   0        0 tableware    
 9   185  1.51  17.4  0     0.34  75.4  0     6.65  0        0 tableware    
10   186  1.51  13.7  3.2   1.81  72.8  1.76  5.43  1.19     0 headlamps    
# ℹ 28 more rows
…
Rows: 1484 Columns: 10
── Column specification ────────────────────────────────────────────────────────

chr (2): seq_name, class
dbl (8): mcg, gvh, alm, mit, erl, pox, vac, nuc

ℹ Use `spec()` to retrieve the full column specification for this data.
ℹ Specify the column types or set `show_col_types = FALSE` to quiet this message.

yeast_data

# A tibble: 1,484 × 10
   seq_name     mcg   gvh   alm   mit   erl   pox   vac   nuc class
   <chr>      <dbl> <dbl> <dbl> <dbl> <dbl> <dbl> <dbl> <dbl> <chr>
 1 ADT1_YEAST  0.58  0.61  0.47  0.13   0.5   0    0.48  0.22 MIT  
 2 ADT2_YEAST  0.43  0.67  0.48  0.27   0.5   0    0.53  0.22 MIT  
 3 ADT3_YEAST  0.64  0.62  0.49  0.15   0.5   0    0.53  0.22 MIT  
 4 AAR2_YEAST  0.58  0.44  0.57  0.13   0.5   0    0.54  0.22 NUC  
 5 AATM_YEAST  0.42  0.44  0.48  0.54   0.5   0    0.48  0.22 MIT  
 6 AATC_YEAST  0.51  0.4   0.56  0.17   0.5   0.5  0.49  0.22 CYT  
 7 ABC1_YEAST  0.5   0.54  0.48  0.65   0.5   0    0.53  0.22 MIT  
 8 BAF1_YEAST  0.48  0.45  0.59  0.2    0.5   0    0.58  0.34 NUC  
 9 ABF2_YEAST  0.55  0.5   0.66  0.36   0.5   0    0.49  0.22 MIT  
10 ABP1_YEAST  0.4   0.39  0.6   0.15   0.5   0    0.58  0.3  CYT  
# ℹ 1,474 more rows

Start a chain removing the ‘seq_name’ and ‘nuc’ columns.

yeast_data |>
  select(-seq_name & -nuc)

# A tibble: 1,484 × 8
     mcg   gvh   alm   mit   erl   pox   vac class
   <dbl> <dbl> <dbl> <dbl> <dbl> <dbl> <dbl> <chr>
 1  0.58  0.61  0.47  0.13   0.5   0    0.48 MIT  
 2  0.43  0.67  0.48  0.27   0.5   0    0.53 MIT  
 3  0.64  0.62  0.49  0.15   0.5   0    0.53 MIT  
 4  0.58  0.44  0.57  0.13   0.5   0    0.54 NUC  
 5  0.42  0.44  0.48  0.54   0.5   0    0.48 MIT  
 6  0.51  0.4   0.56  0.17   0.5   0.5  0.49 CYT  
 7  0.5   0.54  0.48  0.65   0.5   0    0.53 MIT  
 8  0.48  0.45  0.59  0.2    0.5   0    0.58 NUC  
 9  0.55  0.5   0.66  0.36   0.5   0    0.49 MIT  
10  0.4   0.39  0.6   0.15   0.5   0    0.58 CYT  
# ℹ 1,474 more rows

Continue the chain to determine mean and median for all numeric variables, grouped by ‘class’.

yeast_data |>
  select(-seq_name & -nuc) |>
  group_by(class) |>
  mutate(across(where(is.numeric), list(mean = mean, median = median), .names = "{.col}_{.fn}"))

# A tibble: 1,484 × 22
# Groups:   class [10]
     mcg   gvh   alm   mit   erl   pox   vac class mcg_mean mcg_median gvh_mean
   <dbl> <dbl> <dbl> <dbl> <dbl> <dbl> <dbl> <chr>    <dbl>      <dbl>    <dbl>
 1  0.58  0.61  0.47  0.13   0.5   0    0.48 MIT      0.521       0.51    0.533
 2  0.43  0.67  0.48  0.27   0.5   0    0.53 MIT      0.521       0.51    0.533
 3  0.64  0.62  0.49  0.15   0.5   0    0.53 MIT      0.521       0.51    0.533
 4  0.58  0.44  0.57  0.13   0.5   0    0.54 NUC      0.452       0.45    0.456
 5  0.42  0.44  0.48  0.54   0.5   0    0.48 MIT      0.521       0.51    0.533
 6  0.51  0.4   0.56  0.17   0.5   0.5  0.49 CYT      0.481       0.48    0.470
 7  0.5   0.54  0.48  0.65   0.5   0    0.53 MIT      0.521       0.51    0.533
 8  0.48  0.45  0.59  0.2    0.5   0    0.58 NUC      0.452       0.45    0.456
 9  0.55  0.5   0.66  0.36   0.5   0    0.49 MIT      0.521       0.51    0.533
10  0.4   0.39  0.6   0.15   0.5   0    0.58 CYT      0.481       0.48    0.470
# ℹ 1,474 more rows
# ℹ 11 more variables: gvh_median <dbl>, alm_mean <dbl>, alm_median <dbl>,
#   mit_mean <dbl>, mit_median <dbl>, erl_mean <dbl>, erl_median <dbl>,
#   pox_mean <dbl>, pox_median <dbl>, vac_mean <dbl>, vac_median <dbl>
…
Read in data from the white wine excel spreadsheet. First activate the ‘readxl’ package for this session.

library("readxl")

Then, read in the excel sheet from the RProject session folder via the ‘readxl’ package.

white_wine <- read_excel(
  "./white-wine.xlsx",
  sheet = "white-wine",
  col_names = TRUE
)
white_wine

# A tibble: 4,898 × 12
   `fixed acidity` `volatile acidity` `citric acid` `residual sugar` chlorides
             <dbl>              <dbl>         <dbl>            <dbl>     <dbl>
 1               7               0.27          0.36             20.7     0.045
 2              63               0.3           0.34              1.6     0.049
 3              81               0.28          0.4               6.9     0.05 
 4              72               0.23          0.32              8.5     0.058
 5              72               0.23          0.32              8.5     0.058
 6              81               0.28          0.4               6.9     0.05 
 7              62               0.32          0.16              7       0.045
 8               7               0.27          0.36             20.7     0.045
 9              63               0.3           0.34              1.6     0.049
10              81               0.22          0.43              1.5     0.044
# ℹ 4,888 more rows
# ℹ 7 more variables: `free sulfur dioxide` <dbl>,
#   `total sulfur dioxide` <dbl>, density <dbl>, pH <dbl>, sulphates <dbl>,
#   alcohol <dbl>, quality <dbl>
…
Overwrite the existing column names with the ‘ww_col_names’ tibble from the excel sheet.

colnames(white_wine) <- ww_col_names[[1]]
white_wine

# A tibble: 4,898 × 12
   fixed_acidity volatile_acidity citric_acid residual_sugar chlorides
           <dbl>            <dbl>       <dbl>          <dbl>     <dbl>
 1             7             0.27        0.36           20.7     0.045
 2            63             0.3         0.34            1.6     0.049
 3            81             0.28        0.4             6.9     0.05 
 4            72             0.23        0.32            8.5     0.058
 5            72             0.23        0.32            8.5     0.058
 6            81             0.28        0.4             6.9     0.05 
 7            62             0.32        0.16            7       0.045
 8             7             0.27        0.36           20.7     0.045
 9            63             0.3         0.34            1.6     0.049
10            81             0.22        0.43            1.5     0.044
# ℹ 4,888 more rows
# ℹ 7 more variables: free_sulfur_dioxide <dbl>, total_sulfur_dioxide <dbl>,
#   density <dbl>, pH <dbl>, sulphates <dbl>, alcohol <dbl>, quality <dbl>

Add a column indicating that these observations are associated with white wines.

mut_white_wine <- white_wine |>
  mutate(wine_type = "white")
mut_white_wine

# A tibble: 4,898 × 13
   fixed_acidity volatile_acidity citric_acid residual_sugar chlorides
           <dbl>            <dbl>       <dbl>          <dbl>     <dbl>
 1             7             0.27        0.36           20.7     0.045
 2            63             0.3         0.34            1.6     0.049
 3            81             0.28        0.4             6.9     0.05 
 4            72             0.23        0.32            8.5     0.058
 5            72             0.23        0.32            8.5     0.058
 6            81             0.28        0.4             6.9     0.05 
 7            62             0.32        0.16            7       0.045
 8             7             0.27        0.36           20.7     0.045
 9            63             0.3         0.34            1.6     0.049
10            81             0.22        0.43            1.5     0.044
# ℹ 4,888 more rows
# ℹ 8 more variables: free_sulfur_dioxide <dbl>, total_sulfur_dioxide <dbl>,
#   density <dbl>, pH <dbl>, sulphates <dbl>, alcohol <dbl>, quality <dbl>,
#   wine_type <chr>
…
Rows: 1599 Columns: 12
── Column specification ────────────────────────────────────────────────────────
Delimiter: ";"
dbl (12): fixed acidity, volatile acidity, citric acid, residual sugar, chlo...

ℹ Use `spec()` to retrieve the full column specification for this data.
ℹ Specify the column types or set `show_col_types = FALSE` to quiet this message.

red_wine

# A tibble: 1,599 × 12
   `fixed acidity` `volatile acidity` `citric acid` `residual sugar` chlorides
             <dbl>              <dbl>         <dbl>            <dbl>     <dbl>
 1             7.4               0.7           0                 1.9     0.076
 2             7.8               0.88          0                 2.6     0.098
 3             7.8               0.76          0.04              2.3     0.092
 4            11.2               0.28          0.56              1.9     0.075
 5             7.4               0.7           0                 1.9     0.076
 6             7.4               0.66          0                 1.8     0.075
 7             7.9               0.6           0.06              1.6     0.069
 8             7.3               0.65          0                 1.2     0.065
 9             7.8               0.58          0.02              2       0.073
10             7.5               0.5           0.36              6.1     0.071
# ℹ 1,589 more rows
# ℹ 7 more variables: `free sulfur dioxide` <dbl>,
#   `total sulfur dioxide` <dbl>, density <dbl>, pH <dbl>, sulphates <dbl>,
#   alcohol <dbl>, quality <dbl>

Update the column names to be the same as those for the white wines.

colnames(red_wine) <- ww_col_names[[1]]
red_wine

# A tibble: 1,599 × 12
   fixed_acidity volatile_acidity citric_acid residual_sugar chlorides
           <dbl>            <dbl>       <dbl>          <dbl>     <dbl>
 1           7.4             0.7         0               1.9     0.076
 2           7.8             0.88        0               2.6     0.098
 3           7.8             0.76        0.04            2.3     0.092
 4          11.2             0.28        0.56            1.9     0.075
 5           7.4             0.7         0               1.9     0.076
 6           7.4             0.66        0               1.8     0.075
 7           7.9             0.6         0.06            1.6     0.069
 8           7.3             0.65        0               1.2     0.065
 9           7.8             0.58        0.02            2       0.073
10           7.5             0.5         0.36            6.1     0.071
# ℹ 1,589 more rows
# ℹ 7 more variables: free_sulfur_dioxide <dbl>, total_sulfur_dioxide <dbl>,
#   density <dbl>, pH <dbl>, sulphates <dbl>, alcohol <dbl>, quality <dbl>

Add a column indicating that these observations are associated with white wines.

mut_red_wine <- red_wine |>
  mutate(wine_type = "red")
mut_red_wine

# A tibble: 1,599 × 13
   fixed_acidity volatile_acidity citric_acid residual_sugar chlorides
           <dbl>            <dbl>       <dbl>          <dbl>     <dbl>
 1           7.4             0.7         0               1.9     0.076
 2           7.8             0.88        0               2.6     0.098
 3           7.8             0.76        0.04            2.3     0.092
 4          11.2             0.28        0.56            1.9     0.075
 5           7.4             0.7         0               1.9     0.076
 6           7.4             0.66        0               1.8     0.075
 7           7.9             0.6         0.06            1.6     0.069
 8           7.3             0.65        0               1.2     0.065
 9           7.8             0.58        0.02            2       0.073
10           7.5             0.5         0.36            6.1     0.071
# ℹ 1,589 more rows
# ℹ 8 more variables: free_sulfur_dioxide <dbl>, total_sulfur_dioxide <dbl>,
#   density <dbl>, pH <dbl>, sulphates <dbl>, alcohol <dbl>, quality <dbl>,
#   wine_type <chr>

Now combine the two datasets

wine_dataset <- bind_rows(mut_white_wine, mut_red_wine)
wine_dataset

# A tibble: 6,497 × 13
   fixed_acidity volatile_acidity citric_acid residual_sugar chlorides
           <dbl>            <dbl>       <dbl>          <dbl>     <dbl>
 1             7             0.27        0.36           20.7     0.045
 2            63             0.3         0.34            1.6     0.049
 3            81             0.28        0.4             6.9     0.05 
 4            72             0.23        0.32            8.5     0.058
 5            72             0.23        0.32            8.5     0.058
 6            81             0.28        0.4             6.9     0.05 
 7            62             0.32        0.16            7       0.045
 8             7             0.27        0.36           20.7     0.045
 9            63             0.3         0.34            1.6     0.049
10            81             0.22        0.43            1.5     0.044
# ℹ 6,487 more rows
# ℹ 8 more variables: free_sulfur_dioxide <dbl>, total_sulfur_dioxide <dbl>,
#   density <dbl>, pH <dbl>, sulphates <dbl>, alcohol <dbl>, quality <dbl>,
#   wine_type <chr>

Filter combined dataset to only see high quality (> 6.5) wines and wines that have an alcohol value <132.

wine_dataset |>
  filter(quality > 6.5, alcohol < 132)

# A tibble: 1,206 × 13
   fixed_acidity volatile_acidity citric_acid residual_sugar chlorides
           <dbl>            <dbl>       <dbl>          <dbl>     <dbl>
 1            66             0.16        0.4             1.5     0.044
 2            66             0.17        0.38            1.5     0.032
 3            62             0.66        0.48            1.2     0.029
 4            62             0.66        0.48            1.2     0.029
 5            64             0.31        0.38            2.9     0.038
 6            68             0.26        0.42            1.7     0.049
 7            72             0.32        0.36            2       0.033
 8            74             0.18        0.31            1.4     0.058
 9            66             0.25        0.29            1.1     0.068
10            62             0.16        0.33            1.1     0.057
# ℹ 1,196 more rows
# ℹ 8 more variables: free_sulfur_dioxide <dbl>, total_sulfur_dioxide <dbl>,
#   density <dbl>, pH <dbl>, sulphates <dbl>, alcohol <dbl>, quality <dbl>,
#   wine_type <chr>

Continue to sort the rows based on quality.

wine_dataset |>
  filter(quality > 6.5, alcohol < 132) |>
  arrange(quality)

# A tibble: 1,206 × 13
   fixed_acidity volatile_acidity citric_acid residual_sugar chlorides
           <dbl>            <dbl>       <dbl>          <dbl>     <dbl>
 1            66             0.16        0.4             1.5     0.044
 2            66             0.17        0.38            1.5     0.032
 3            64             0.31        0.38            2.9     0.038
 4            72             0.32        0.36            2       0.033
 5            74             0.18        0.31            1.4     0.058
 6            66             0.25        0.29            1.1     0.068
 7            62             0.16        0.33            1.1     0.057
 8            64             0.26        0.24            6.4     0.04 
 9            71             0.18        0.36            1.4     0.043
10             7             0.32        0.34            1.3     0.042
# ℹ 1,196 more rows
# ℹ 8 more variables: free_sulfur_dioxide <dbl>, total_sulfur_dioxide <dbl>,
#   density <dbl>, pH <dbl>, sulphates <dbl>, alcohol <dbl>, quality <dbl>,
#   wine_type <chr>

Continue the chain to only show variables acid, alcohol, type, and variable.

wine_dataset |>
  filter(quality > 6.5, alcohol < 132) |>
  arrange(quality) |>
  select(citric_acid, alcohol, wine_type, quality)

# A tibble: 1,206 × 4
   citric_acid alcohol wine_type quality
         <dbl>   <dbl> <chr>       <dbl>
 1        0.4      124 white           7
 2        0.38     114 white           7
 3        0.38      11 white           7
 4        0.36     123 white           7
 5        0.31      10 white           7
 6        0.29      11 white           7
 7        0.33     109 white           7
 8        0.24     126 white           7
 9        0.36     127 white           7
10        0.34      12 white           7
# ℹ 1,196 more rows
…
